{
  "data": [{
    "datetime": "2015-07-27T00:20:01.000+0900",
    "fragment": null,
    "headline": [],
    "link": "http://api.aitc.jp/jmardb-api/reports/d3d66a42-0f21-3618-83b0-d29b144d05f6",
    "title": "特殊気象報"
  }, {
    "datetime": "2015-07-27T00:42:01.000+0900",
    "fragment": null,
    "headline": ["２７日００時３７分ころ、地震がありました。"],
    "link": "http://api.aitc.jp/jmardb-api/reports/fcd93ea7-e51f-33ea-8f4f-4da9ae79c3bd",
    "title": "震源・震度に関する情報"
  }, {
    "datetime": "2015-07-27T02:00:00.000+0900",
    "fragment": null,
    "headline": ["　現在、阿蘇山は噴火警戒レベル２（火口周辺規制）です。阿蘇山で噴火が発生した場合には、２７日０９\n時から１２時までは火口から東方向に降灰が予想されます。"],
    "link": "http://api.aitc.jp/jmardb-api/reports/9b96fe0b-6b46-3725-9f47-38b3e6e60346",
    "title": "降灰予報（定時）"
  }, {
    "datetime": "2015-07-27T02:00:00.000+0900",
    "fragment": null,
    "headline": ["　現在、桜島は噴火警戒レベル３（入山規制）です。桜島で噴火が発生した場合には、２７日０９時から１\n２時までは火口から東方向に降灰が予想されます。"],
    "link": "http://api.aitc.jp/jmardb-api/reports/02fb6f70-87ee-3371-aeda-b620b164438b",
    "title": "降灰予報（定時）"
  }, {
    "datetime": "2015-07-27T02:00:00.000+0900",
    "fragment": null,
    "headline": ["　現在、諏訪之瀬島は噴火警戒レベル２（火口周辺規制）です。諏訪之瀬島で噴火が発生した場合には、２\n７日０９時から１２時までは火口から東方向に降灰が予想されます。"],
    "link": "http://api.aitc.jp/jmardb-api/reports/7101502c-9c84-3d6d-9abe-30930364a987",
    "title": "降灰予報（定時）"
  }, {
    "datetime": "2015-07-27T02:00:00.000+0900",
    "fragment": null,
    "headline": ["　現在、口永良部島は噴火警戒レベル５（避難）です。口永良部島で噴火が発生した場合には、２７日０９\n時から１２時までは火口から東方向に降灰が予想されます。"],
    "link": "http://api.aitc.jp/jmardb-api/reports/928abe9b-a13f-3092-98a5-ae7d532058b1",
    "title": "降灰予報（定時）"
  }, {
    "datetime": "2015-07-27T02:02:50.000+0900",
    "fragment": null,
    "headline": ["火　　山：桜島\n日　　時：2015年07月27日01時53分（261653UTC） 第1報\n現　　象：爆発"],
    "link": "http://api.aitc.jp/jmardb-api/reports/29436567-4cc6-3b07-83d0-5b057fe9f964",
    "title": "噴火に関する火山観測報"
  }, {
    "datetime": "2015-07-27T02:06:47.000+0900",
    "fragment": null,
    "headline": ["火　　山：桜島\n日　　時：2015年07月27日01時53分（261653UTC） 第2報\n現　　象：爆発"],
    "link": "http://api.aitc.jp/jmardb-api/reports/802b5eff-bdec-3540-9e6c-1f6416c4e91e",
    "title": "噴火に関する火山観測報"
  }, {
    "datetime": "2015-07-27T03:11:14.000+0900",
    "fragment": null,
    "headline": ["山形県では、２７日昼前まで濃霧による視程障害に注意してください。"],
    "link": "http://api.aitc.jp/jmardb-api/reports/22915f8b-1460-3d63-9011-bb50cd42d8dc",
    "title": "気象特別警報・警報・注意報"
  }, {
    "datetime": "2015-07-27T03:11:15.000+0900",
    "fragment": null,
    "headline": ["山形県では、２７日昼前まで濃霧による視程障害に注意してください。"],
    "link": "http://api.aitc.jp/jmardb-api/reports/da36079b-cf49-3dda-a8c6-9e7381503ec7",
    "title": "気象警報・注意報"
  }, {
    "datetime": "2015-07-27T03:18:26.000+0900",
    "fragment": null,
    "headline": ["注意報を解除します。"],
    "link": "http://api.aitc.jp/jmardb-api/reports/c35e2130-2cfd-31f7-8dd6-ee832b02f1c8",
    "title": "気象特別警報・警報・注意報"
  }, {
    "datetime": "2015-07-27T03:18:27.000+0900",
    "fragment": null,
    "headline": ["注意報を解除します。"],
    "link": "http://api.aitc.jp/jmardb-api/reports/f380fe5b-7bca-3b66-bf57-d0053b5ed29f",
    "title": "気象警報・注意報"
  }, {
    "datetime": "2015-07-27T03:19:04.000+0900",
    "fragment": null,
    "headline": ["注意報を解除します。"],
    "link": "http://api.aitc.jp/jmardb-api/reports/bc2ab5a7-d1b7-3fd5-9a7a-e827e86ed950",
    "title": "気象特別警報・警報・注意報"
  }, {
    "datetime": "2015-07-27T03:19:04.000+0900",
    "fragment": null,
    "headline": ["注意報を解除します。"],
    "link": "http://api.aitc.jp/jmardb-api/reports/3496d5b8-9bb1-33f6-a24e-905a1febfbe2",
    "title": "気象警報・注意報"
  }, {
    "datetime": "2015-07-27T03:22:57.000+0900",
    "fragment": null,
    "headline": ["大隅、種子島・屋久島地方では、土砂災害に注意してください。薩摩、大隅、種子島・屋久島地方では、低い土地の浸水や河川の増水、落雷に注意してください。"],
    "link": "http://api.aitc.jp/jmardb-api/reports/6b925650-f13f-3304-aecd-788aa88627de",
    "title": "気象警報・注意報"
  }, {
    "datetime": "2015-07-27T03:22:57.000+0900",
    "fragment": null,
    "headline": ["大隅、種子島・屋久島地方では、土砂災害に注意してください。薩摩、大隅、種子島・屋久島地方では、低い土地の浸水や河川の増水、落雷に注意してください。"],
    "link": "http://api.aitc.jp/jmardb-api/reports/8bd28de1-2847-3460-b639-4b222e09b542",
    "title": "気象特別警報・警報・注意報"
  }, {
    "datetime": "2015-07-27T03:40:00.000+0900",
    "fragment": null,
    "headline": [],
    "link": "http://api.aitc.jp/jmardb-api/reports/ca89160d-db03-3f23-aed1-7852c8e16414",
    "title": "特殊気象報"
  }, {
    "datetime": "2015-07-27T03:43:09.000+0900",
    "fragment": null,
    "headline": ["福岡、北九州地方では、２７日朝まで強風に注意してください。"],
    "link": "http://api.aitc.jp/jmardb-api/reports/20a2c37c-e3db-329a-8787-5b0385c660e0",
    "title": "気象特別警報・警報・注意報"
  }, {
    "datetime": "2015-07-27T03:43:09.000+0900",
    "fragment": null,
    "headline": ["福岡、北九州地方では、２７日朝まで強風に注意してください。"],
    "link": "http://api.aitc.jp/jmardb-api/reports/b4ee46e1-6a35-376d-a16d-86d8453ad8f4",
    "title": "気象警報・注意報"
  }, {
    "datetime": "2015-07-27T03:50:00.000+0900",
    "fragment": null,
    "headline": [],
    "link": "http://api.aitc.jp/jmardb-api/reports/2ab54a49-7c03-3326-a20d-e193eb3b55ce",
    "title": "特殊気象報"
  }],
  "paging": {
    "next": "http://api.aitc.jp/jmardb-api/search?datetime=2015-07-27+00%3A00%3A00&datetime=2015-07-28+00%3A00%3A00&order=old&limit=20&offset=20",
    "previous": null,
    "totalCount": 270
  }
}
