{
  "data": [{
    "datetime": "2013-01-01T00:02:00.000+0900",
    "fragment": null,
    "headline": [],
    "link": "http://api.aitc.jp/jmardb-api/reports/c811971d-75d3-4a83-9bd7-3ec287ad7e2e",
    "title": "特殊気象報"
  }, {
    "datetime": "2013-01-01T00:02:00.000+0900",
    "fragment": null,
    "headline": [],
    "link": "http://api.aitc.jp/jmardb-api/reports/fdc2960f-bc85-496b-a0ec-e6f3e061a877",
    "title": "特殊気象報"
  }, {
    "datetime": "2013-01-01T01:02:00.000+0900",
    "fragment": null,
    "headline": [],
    "link": "http://api.aitc.jp/jmardb-api/reports/7c8389ee-3b1c-4939-9b24-04c9fdf474e5",
    "title": "特殊気象報"
  }, {
    "datetime": "2013-01-01T01:02:00.000+0900",
    "fragment": null,
    "headline": [],
    "link": "http://api.aitc.jp/jmardb-api/reports/26f0a9d2-a54b-428d-a369-9ed30e20fb83",
    "title": "特殊気象報"
  }, {
    "datetime": "2013-01-01T02:02:00.000+0900",
    "fragment": null,
    "headline": [],
    "link": "http://api.aitc.jp/jmardb-api/reports/3e047389-ded0-466b-820e-765199151e22",
    "title": "特殊気象報"
  }, {
    "datetime": "2013-01-01T02:02:00.000+0900",
    "fragment": null,
    "headline": [],
    "link": "http://api.aitc.jp/jmardb-api/reports/17b0afeb-7205-42d3-b252-51694c4b16ab",
    "title": "特殊気象報"
  }, {
    "datetime": "2013-01-01T02:27:09.000+0900",
    "fragment": null,
    "headline": [],
    "link": "http://api.aitc.jp/jmardb-api/reports/2f4eab69-10fd-481e-b866-dba6453aae6d",
    "title": "地方海上警報"
  }, {
    "datetime": "2013-01-01T02:48:07.000+0900",
    "fragment": null,
    "headline": ["注意報を解除します。"],
    "link": "http://api.aitc.jp/jmardb-api/reports/0e4a8e37-785a-4dea-a0a8-0de5746be70c",
    "title": "気象警報・注意報"
  }, {
    "datetime": "2013-01-01T02:50:03.000+0900",
    "fragment": null,
    "headline": ["注意報を解除します。"],
    "link": "http://api.aitc.jp/jmardb-api/reports/644672a0-1310-45e6-93e7-3700734d68a9",
    "title": "気象警報・注意報"
  }, {
    "datetime": "2013-01-01T03:02:00.000+0900",
    "fragment": null,
    "headline": [],
    "link": "http://api.aitc.jp/jmardb-api/reports/5d12a545-b0dd-4c76-b01a-7ec1f6264f81",
    "title": "特殊気象報"
  }, {
    "datetime": "2013-01-01T03:02:00.000+0900",
    "fragment": null,
    "headline": [],
    "link": "http://api.aitc.jp/jmardb-api/reports/78cbd497-240a-4898-905f-0937e6d9aebc",
    "title": "特殊気象報"
  }, {
    "datetime": "2013-01-01T03:15:29.000+0900",
    "fragment": null,
    "headline": ["沿岸北部、沿岸南部では、強風や空気の乾燥による火の取り扱いに注意して下さい。内陸では、大雪やなだれに注意して下さい。"],
    "link": "http://api.aitc.jp/jmardb-api/reports/45f29089-23ff-4389-9d1c-907ff79d280d",
    "title": "気象警報・注意報"
  }, {
    "datetime": "2013-01-01T03:23:42.000+0900",
    "fragment": null,
    "headline": ["注意報を解除します。"],
    "link": "http://api.aitc.jp/jmardb-api/reports/3dc6424e-b72e-4697-91a5-00a11c31098b",
    "title": "気象警報・注意報"
  }, {
    "datetime": "2013-01-01T04:02:00.000+0900",
    "fragment": null,
    "headline": [],
    "link": "http://api.aitc.jp/jmardb-api/reports/f1a941b8-a1cc-4b3f-a31c-789a9e1fb545",
    "title": "特殊気象報"
  }, {
    "datetime": "2013-01-01T04:11:08.000+0900",
    "fragment": null,
    "headline": ["嶺北では、１日昼過ぎまで大雪や落雷、電線等への着雪に注意して下さい。福井県では、１日昼過ぎまで高波に注意して下さい。"],
    "link": "http://api.aitc.jp/jmardb-api/reports/1a7da656-8de1-4d31-b472-79554a179e4b",
    "title": "気象警報・注意報"
  }, {
    "datetime": "2013-01-01T04:20:08.000+0900",
    "fragment": null,
    "headline": ["加賀では、大雪に注意して下さい。石川県では、高波や高潮、落雷に注意して下さい。"],
    "link": "http://api.aitc.jp/jmardb-api/reports/34587562-8109-4465-bafd-a87fb6d03bf0",
    "title": "気象警報・注意報"
  }, {
    "datetime": "2013-01-01T04:24:39.000+0900",
    "fragment": null,
    "headline": ["福岡、北九州地方では、１日昼過ぎから強風や高波に注意して下さい。福岡県では、１日朝まで大雪に注意して下さい。"],
    "link": "http://api.aitc.jp/jmardb-api/reports/74c1e572-b43c-4e8f-bcac-e5a9797bd886",
    "title": "気象警報・注意報"
  }, {
    "datetime": "2013-01-01T04:26:13.000+0900",
    "fragment": null,
    "headline": ["北海道日本海側では、１日は雪を伴って非常に強い風が吹き、暴風雪の所があるでしょう。猛ふぶきによる交通障害に警戒してください。北日本日本海側では、１日朝にかけて高波にも警戒してください。"],
    "link": "http://api.aitc.jp/jmardb-api/reports/116c01c9-844a-48d0-ac65-fa22d02ce203",
    "title": "全般気象情報"
  }, {
    "datetime": "2013-01-01T04:28:10.000+0900",
    "fragment": null,
    "headline": [],
    "link": "http://api.aitc.jp/jmardb-api/reports/f2eb8029-55d9-4b03-adae-c822ec2f3231",
    "title": "紫外線観測データ"
  }, {
    "datetime": "2013-01-01T04:29:50.000+0900",
    "fragment": null,
    "headline": ["北部では１日昼前から、南部では１日昼過ぎから１日夜のはじめ頃まで、強風に注意して下さい。佐賀県では、１日朝まで大雪に注意して下さい。北部では、１日昼過ぎから高波に注意して下さい。"],
    "link": "http://api.aitc.jp/jmardb-api/reports/40bce36d-aa3a-4e14-93f9-504dedcbef01",
    "title": "気象警報・注意報"
  }],
  "paging": {
    "next": "http://api.aitc.jp/jmardb-api/search?datetime=2013-01-01+00%3A00%3A00&datetime=2013-02-01+00%3A00%3A00&order=old&limit=20&offset=20",
    "previous": null,
    "totalCount": 24879
  }
}
